%YAML 1.1
%TAG !u! tag:unity3d.com,2011:
--- !u!1 &1028965818278522328
GameObject:
  m_ObjectHideFlags: 0
  m_CorrespondingSourceObject: {fileID: 0}
  m_PrefabInstance: {fileID: 0}
  m_PrefabAsset: {fileID: 0}
  serializedVersion: 6
  m_Component:
  - component: {fileID: 363751815649621858}
  - component: {fileID: 3648924826912815303}
  - component: {fileID: 1533302525576154125}
  - component: {fileID: 1028965818278522329}
  - component: {fileID: 5753394868781654511}
  - component: {fileID: 2187941762466025657}
  m_Layer: 0
  m_Name: EnemyProjectile
  m_TagString: Enemy Projectile
  m_Icon: {fileID: 0}
  m_NavMeshLayer: 0
  m_StaticEditorFlags: 0
  m_IsActive: 1
--- !u!4 &363751815649621858
Transform:
  m_ObjectHideFlags: 0
  m_CorrespondingSourceObject: {fileID: 0}
  m_PrefabInstance: {fileID: 0}
  m_PrefabAsset: {fileID: 0}
  m_GameObject: {fileID: 1028965818278522328}
  m_LocalRotation: {x: 0, y: 0, z: 0, w: 1}
  m_LocalPosition: {x: 0, y: 0, z: 0}
  m_LocalScale: {x: 1, y: 1, z: 1}
  m_Children:
  - {fileID: 4205601226562475744}
  m_Father: {fileID: 0}
  m_RootOrder: 0
  m_LocalEulerAnglesHint: {x: 0, y: 0, z: 0}
--- !u!33 &3648924826912815303
MeshFilter:
  m_ObjectHideFlags: 0
  m_CorrespondingSourceObject: {fileID: 0}
  m_PrefabInstance: {fileID: 0}
  m_PrefabAsset: {fileID: 0}
  m_GameObject: {fileID: 1028965818278522328}
  m_Mesh: {fileID: -4974468161004867859, guid: 3cded8844777bf141ab637946e0ac267, type: 3}
--- !u!23 &1533302525576154125
MeshRenderer:
  m_ObjectHideFlags: 0
  m_CorrespondingSourceObject: {fileID: 0}
  m_PrefabInstance: {fileID: 0}
  m_PrefabAsset: {fileID: 0}
  m_GameObject: {fileID: 1028965818278522328}
  m_Enabled: 1
  m_CastShadows: 1
  m_ReceiveShadows: 1
  m_DynamicOccludee: 1
  m_MotionVectors: 1
  m_LightProbeUsage: 1
  m_ReflectionProbeUsage: 1
  m_RayTracingMode: 2
  m_RayTraceProcedural: 0
  m_RenderingLayerMask: 1
  m_RendererPriority: 0
  m_Materials:
  - {fileID: 2100000, guid: 12faf6509201a644b9699a96fb388483, type: 2}
  m_StaticBatchInfo:
    firstSubMesh: 0
    subMeshCount: 0
  m_StaticBatchRoot: {fileID: 0}
  m_ProbeAnchor: {fileID: 0}
  m_LightProbeVolumeOverride: {fileID: 0}
  m_ScaleInLightmap: 1
  m_ReceiveGI: 1
  m_PreserveUVs: 0
  m_IgnoreNormalsForChartDetection: 0
  m_ImportantGI: 0
  m_StitchLightmapSeams: 1
  m_SelectedEditorRenderState: 3
  m_MinimumChartSize: 4
  m_AutoUVMaxDistance: 0.5
  m_AutoUVMaxAngle: 89
  m_LightmapParameters: {fileID: 0}
  m_SortingLayerID: 0
  m_SortingLayer: 0
  m_SortingOrder: 0
  m_AdditionalVertexStreams: {fileID: 0}
--- !u!65 &1028965818278522329
BoxCollider:
  m_ObjectHideFlags: 0
  m_CorrespondingSourceObject: {fileID: 0}
  m_PrefabInstance: {fileID: 0}
  m_PrefabAsset: {fileID: 0}
  m_GameObject: {fileID: 1028965818278522328}
  m_Material: {fileID: 0}
  m_IsTrigger: 0
  m_Enabled: 1
  serializedVersion: 2
  m_Size: {x: 0.2987081, y: 0.29870814, z: 0.5252612}
  m_Center: {x: 0, y: 0.000000007450581, z: 0.19800001}
--- !u!54 &5753394868781654511
Rigidbody:
  m_ObjectHideFlags: 0
  m_CorrespondingSourceObject: {fileID: 0}
  m_PrefabInstance: {fileID: 0}
  m_PrefabAsset: {fileID: 0}
  m_GameObject: {fileID: 1028965818278522328}
  serializedVersion: 2
  m_Mass: 1
  m_Drag: 0
  m_AngularDrag: 0.05
  m_UseGravity: 0
  m_IsKinematic: 0
  m_Interpolate: 0
  m_Constraints: 0
  m_CollisionDetection: 0
--- !u!114 &2187941762466025657
MonoBehaviour:
  m_ObjectHideFlags: 0
  m_CorrespondingSourceObject: {fileID: 0}
  m_PrefabInstance: {fileID: 0}
  m_PrefabAsset: {fileID: 0}
  m_GameObject: {fileID: 1028965818278522328}
  m_Enabled: 1
  m_EditorHideFlags: 0
  m_Script: {fileID: 11500000, guid: 2821e8e786b7190459c702f88b550adc, type: 3}
  m_Name: 
  m_EditorClassIdentifier: 
  fireParticles: {fileID: 6476931218985048543, guid: 5fd091a75116beb44ba9c230070b6942, type: 3}
  destructionParticles: {fileID: 2580084456541027044, guid: 3dac029c34d9f2b4e8ba23e6b3ae8321, type: 3}
--- !u!1001 &2288560136796866207
PrefabInstance:
  m_ObjectHideFlags: 0
  serializedVersion: 2
  m_Modification:
    m_TransformParent: {fileID: 363751815649621858}
    m_Modifications:
    - target: {fileID: 2711120078989268657, guid: bc20d04daf346ae4e9e91756ac8b2e9c, type: 3}
      propertyPath: m_TagString
      value: Untagged
      objectReference: {fileID: 0}
    - target: {fileID: 2711120079882391665, guid: bc20d04daf346ae4e9e91756ac8b2e9c, type: 3}
      propertyPath: m_Name
      value: ShellTrailPS
      objectReference: {fileID: 0}
    - target: {fileID: 2711120079882391679, guid: bc20d04daf346ae4e9e91756ac8b2e9c, type: 3}
      propertyPath: m_RootOrder
      value: 0
      objectReference: {fileID: 0}
    - target: {fileID: 2711120079882391679, guid: bc20d04daf346ae4e9e91756ac8b2e9c, type: 3}
      propertyPath: m_LocalPosition.x
      value: 0
      objectReference: {fileID: 0}
    - target: {fileID: 2711120079882391679, guid: bc20d04daf346ae4e9e91756ac8b2e9c, type: 3}
      propertyPath: m_LocalPosition.y
      value: 0
      objectReference: {fileID: 0}
    - target: {fileID: 2711120079882391679, guid: bc20d04daf346ae4e9e91756ac8b2e9c, type: 3}
      propertyPath: m_LocalPosition.z
      value: 0
      objectReference: {fileID: 0}
    - target: {fileID: 2711120079882391679, guid: bc20d04daf346ae4e9e91756ac8b2e9c, type: 3}
      propertyPath: m_LocalRotation.w
      value: 1
      objectReference: {fileID: 0}
    - target: {fileID: 2711120079882391679, guid: bc20d04daf346ae4e9e91756ac8b2e9c, type: 3}
      propertyPath: m_LocalRotation.x
      value: 0
      objectReference: {fileID: 0}
    - target: {fileID: 2711120079882391679, guid: bc20d04daf346ae4e9e91756ac8b2e9c, type: 3}
      propertyPath: m_LocalRotation.y
      value: 0
      objectReference: {fileID: 0}
    - target: {fileID: 2711120079882391679, guid: bc20d04daf346ae4e9e91756ac8b2e9c, type: 3}
      propertyPath: m_LocalRotation.z
      value: 0
      objectReference: {fileID: 0}
    - target: {fileID: 2711120079882391679, guid: bc20d04daf346ae4e9e91756ac8b2e9c, type: 3}
      propertyPath: m_LocalEulerAnglesHint.x
      value: 0
      objectReference: {fileID: 0}
    - target: {fileID: 2711120079882391679, guid: bc20d04daf346ae4e9e91756ac8b2e9c, type: 3}
      propertyPath: m_LocalEulerAnglesHint.y
      value: 0
      objectReference: {fileID: 0}
    - target: {fileID: 2711120079882391679, guid: bc20d04daf346ae4e9e91756ac8b2e9c, type: 3}
      propertyPath: m_LocalEulerAnglesHint.z
      value: 0
      objectReference: {fileID: 0}
    - target: {fileID: 2711120079968941385, guid: bc20d04daf346ae4e9e91756ac8b2e9c, type: 3}
      propertyPath: m_TagString
      value: Untagged
      objectReference: {fileID: 0}
    m_RemovedComponents: []
  m_SourcePrefab: {fileID: 100100000, guid: bc20d04daf346ae4e9e91756ac8b2e9c, type: 3}
--- !u!4 &4205601226562475744 stripped
Transform:
  m_CorrespondingSourceObject: {fileID: 2711120079882391679, guid: bc20d04daf346ae4e9e91756ac8b2e9c, type: 3}
  m_PrefabInstance: {fileID: 2288560136796866207}
  m_PrefabAsset: {fileID: 0}
